10
0 1 72
0 2 24
0 3 79
0 4 74
0 5 24
0 6 83
0 7 79
0 8 30
0 9 59
1 2 36
1 3 21
1 4 53
1 5 34
1 6 28
1 7 53
1 8 85
1 9 82
2 3 85
2 4 83
2 5 83
2 6 26
2 7 66
2 8 83
2 9 84
3 4 82
3 5 22
3 6 49
3 7 71
3 8 71
3 9 36
4 5 25
4 6 15
4 7 44
4 8 22
4 9 80
5 6 60
5 7 71
5 8 77
5 9 83
6 7 50
6 8 61
6 9 71
7 8 17
7 9 40
8 9 75
