1406 1359 1406 1406 1406 1230  |  1378 1318 1400 1400 1400 1378 1378 1400 1324 1324 1400 1391 1400 1391 1283 1400 1391 1400 1400 1391 

1449 1449 1449 1449 1449 1266  |  1411 1266 1417 1266 1449 1303 1449 1303 1385 1303 1449 1449 1449 1266 1411 1314 1376 1449 1314 1417 

1289 1288 1289 1289 1289 1225  |  1253 1280 1248 1270 1233 1217 1253 1245 1249 1230 1249 1281 1277 1181 1274 1253 1253 1112 1274 1228 

1262 1212 1262 1225 1225 1200  |  1262 1195 1245 1262 1245 1225 1262 1262 1071 1089 1205 1245 1195 1262 1262 1205 1262 1245 1212 1262 

1338 1286 1338 1329 1329 1112  |  1338 1214 1338 1329 1305 1212 1338 1298 1329 1329 1329 1329 1169 1247 1329 1338 1247 1338 1329 1338 

1398 1377 1398 1398 1398 1230  |  1301 1305 1385 1375 1270 1375 1366 1295 1398 1386 1375 1385 1305 1270 1366 1398 1385 1385 1270 1305 

1407 1407 1407 1303 1303 1277  |  1387 1366 1407 1366 1378 1256 1366 1387 1396 1384 1301 1406 1380 1351 1297 1396 1259 1407 1387 1323 

1367 1281 1367 1281 1281 1098  |  1252 1367 1251 1251 1367 1255 1280 1367 1280 1367 1280 1190 1329 1367 1367 1251 1260 1251 1280 1367 

1393 1393 1393 1393 1393 1137  |  1240 1329 1393 1291 1393 1240 1393 1379 1393 1393 1188 1379 1173 1393 1393 1393 1329 1379 1240 1393 

1439 1439 1439 1439 1439 1205  |  1362 1383 1307 1436 1439 1436 1415 1436 1439 1383 1439 1436 1269 1383 1221 1085 1436 1439 1415 1415 

1587 1581 1587 1587 1587 1228  |  1587 1587 1541 1547 1581 1581 1581 1581 1587 1587 1473 1587 1587 1587 1587 1519 1379 1473 1547 1587 

1282 1282 1282 1145 1145 1228  |  1282 1154 1243 1243 1068 1192 1219 1215 1217 1213 1270 1068 1206 1262 1282 1188 1247 1184 1213 1222 

1554 1474 1554 1474 1474 1245  |  1469 1457 1474 1474 1554 1474 1554 1402 1554 1387 1435 1554 1427 1554 1554 1451 1554 1449 1489 1474 

1353 1345 1353 1353 1353 1210  |  1303 1345 1313 1278 1324 1260 1324 1312 1353 1260 1353 1312 1303 1353 1353 1274 1313 1324 1312 1278 

1501 1388 1501 1501 1501 1240  |  1290 1501 1290 1501 1501 1501 1501 1325 1488 1480 1501 1269 1369 1488 1290 1274 1420 1369 1501 1501 

1377 1376 1377 1363 1363 1205  |  1232 1206 1249 1376 1376 1371 1297 1358 1376 1206 1376 1377 1371 1279 1358 1376 1376 1358 1376 1358 

1380 1380 1380 1238 1238 1131  |  1310 1380 1324 1380 1380 1380 1279 1252 1258 1341 1279 1341 1249 1302 1339 1341 1353 1276 1353 1380 

1339 1295 1339 1277 1277 1158  |  1297 1179 1272 1297 1248 1235 1288 1314 1339 1066 1272 1339 1310 1231 1339 1235 1260 1237 1239 1187 

1456 1403 1456 1341 1341 1194  |  1456 1278 1396 1345 1369 1396 1410 1434 1312 1342 1400 1336 1350 1456 1415 1307 1396 1407 1314 1377 

1488 1452 1488 1418 1418 1261  |  1448 1488 1488 1450 1454 1469 1454 1360 1454 1450 1469 1415 1448 1382 1205 1415 1488 1366 1488 1488 

