
### Grafs Vskaits:20    P[in cut]=0.50  P[out cut]=0.25 ###
Skautnu skaits 
Tuvu cut 
mans_rez 
pilna parlase
 62   45   45   47
 73   48   50   51
 67   45   44   49
 84   52   61   63
 55   20   40   40
 65   46   50   50
 76   54   50   57
 66   26   46   48
 73   51   55   55
 52   38   40   40
 70   45   48   49
 68   42   48   50
 72   50   55   55
 69   45   50   51
 72   48   49   54
 63   51   51   51
 80   54   58   58
 65   44   46   48
 76   46   51   54
 80   50   57   57
#############################################################
### Grafs Vskaits:20    P[in cut]=0.60  P[out cut]=0.15 ###
Skautnu skaits 
Tuvu cut 
mans_rez 
pilna parlase
 64   52   52   52
 73   60   60   60
 65   52   52   52
 82   61   62   62
 63   39   46   46
 63   44   45   46
 75   59   59   59
 66   49   51   51
 75   62   62   62
 71   62   62   62
 65   52   47   52
 79   64   64   64
 70   60   60   60
 72   57   53   57
 63   52   52   52
 71   61   61   61
 82   65   65   65
 73   60   60   60
 63   48   50   50
 80   56   62   62
#############################################################
### Grafs Vskaits:20    P[in cut]=0.80  P[out cut]=0.10 ###
Skautnu skaits 
Tuvu cut 
mans_rez 
pilna parlase
 79   70   70   70
 78   69   69   69
 87   78   78   78
 99   84   84   84
 62   48   50   50
 75   69   69   69
 82   73   73   73
 81   74   74   74
 88   80   80   80
 78   71   71   71
 92   80   80   80
 91   80   80   80
 84   75   75   75
 75   64   64   64
 81   72   72   72
 78   71   71   71
 90   81   81   81
 82   76   76   76
 91   78   78   78
 91   79   79   79
#############################################################