340 340 340 340 340 266 321 321 340 327 330 279 295 330 327 
410 410 410 410 410 384 410 410 410 397 410 397 384 410 397 
214 214 214 214 214 214 213 213 214 213 153 213 213 153 213 
300 300 276 276 300 300 300 300 300 300 300 300 300 300 300 
